Trabalho 1 - ULA/Interface/simulation/qsim/P11interface.msim.vcd
$comment
	File created using the following command:
		vcd file P11interface.msim.vcd -direction
$end
$date
	Fri Jan 07 13:32:12 2022
$end
$version
	ModelSim Version 2020.1
$end
$timescale
	1ps
$end

$scope module p11interface_vhd_vec_tst $end
$var wire 1 ! botaoSEL $end
$var wire 1 " carry_borrowLED $end
$var wire 1 # clk $end
$var wire 1 $ entradaA [3] $end
$var wire 1 % entradaA [2] $end
$var wire 1 & entradaA [1] $end
$var wire 1 ' entradaA [0] $end
$var wire 1 ( entradaB [3] $end
$var wire 1 ) entradaB [2] $end
$var wire 1 * entradaB [1] $end
$var wire 1 + entradaB [0] $end
$var wire 1 , operacaoLED [2] $end
$var wire 1 - operacaoLED [1] $end
$var wire 1 . operacaoLED [0] $end
$var wire 1 / reset $end
$var wire 1 0 resultadoDISPLAY [7] $end
$var wire 1 1 resultadoDISPLAY [6] $end
$var wire 1 2 resultadoDISPLAY [5] $end
$var wire 1 3 resultadoDISPLAY [4] $end
$var wire 1 4 resultadoDISPLAY [3] $end
$var wire 1 5 resultadoDISPLAY [2] $end
$var wire 1 6 resultadoDISPLAY [1] $end
$var wire 1 7 resultadoDISPLAY [0] $end
$var wire 1 8 saidaA [3] $end
$var wire 1 9 saidaA [2] $end
$var wire 1 : saidaA [1] $end
$var wire 1 ; saidaA [0] $end
$var wire 1 < saidaB [3] $end
$var wire 1 = saidaB [2] $end
$var wire 1 > saidaB [1] $end
$var wire 1 ? saidaB [0] $end

$scope module i1 $end
$var wire 1 @ gnd $end
$var wire 1 A vcc $end
$var wire 1 B unknown $end
$var wire 1 C devoe $end
$var wire 1 D devclrn $end
$var wire 1 E devpor $end
$var wire 1 F ww_devoe $end
$var wire 1 G ww_devclrn $end
$var wire 1 H ww_devpor $end
$var wire 1 I ww_clk $end
$var wire 1 J ww_reset $end
$var wire 1 K ww_botaoSEL $end
$var wire 1 L ww_entradaA [3] $end
$var wire 1 M ww_entradaA [2] $end
$var wire 1 N ww_entradaA [1] $end
$var wire 1 O ww_entradaA [0] $end
$var wire 1 P ww_entradaB [3] $end
$var wire 1 Q ww_entradaB [2] $end
$var wire 1 R ww_entradaB [1] $end
$var wire 1 S ww_entradaB [0] $end
$var wire 1 T ww_resultadoDISPLAY [7] $end
$var wire 1 U ww_resultadoDISPLAY [6] $end
$var wire 1 V ww_resultadoDISPLAY [5] $end
$var wire 1 W ww_resultadoDISPLAY [4] $end
$var wire 1 X ww_resultadoDISPLAY [3] $end
$var wire 1 Y ww_resultadoDISPLAY [2] $end
$var wire 1 Z ww_resultadoDISPLAY [1] $end
$var wire 1 [ ww_resultadoDISPLAY [0] $end
$var wire 1 \ ww_carry_borrowLED $end
$var wire 1 ] ww_operacaoLED [2] $end
$var wire 1 ^ ww_operacaoLED [1] $end
$var wire 1 _ ww_operacaoLED [0] $end
$var wire 1 ` ww_saidaA [3] $end
$var wire 1 a ww_saidaA [2] $end
$var wire 1 b ww_saidaA [1] $end
$var wire 1 c ww_saidaA [0] $end
$var wire 1 d ww_saidaB [3] $end
$var wire 1 e ww_saidaB [2] $end
$var wire 1 f ww_saidaB [1] $end
$var wire 1 g ww_saidaB [0] $end
$var wire 1 h \resultadoDISPLAY[0]~output_o\ $end
$var wire 1 i \resultadoDISPLAY[1]~output_o\ $end
$var wire 1 j \resultadoDISPLAY[2]~output_o\ $end
$var wire 1 k \resultadoDISPLAY[3]~output_o\ $end
$var wire 1 l \resultadoDISPLAY[4]~output_o\ $end
$var wire 1 m \resultadoDISPLAY[5]~output_o\ $end
$var wire 1 n \resultadoDISPLAY[6]~output_o\ $end
$var wire 1 o \resultadoDISPLAY[7]~output_o\ $end
$var wire 1 p \carry_borrowLED~output_o\ $end
$var wire 1 q \operacaoLED[0]~output_o\ $end
$var wire 1 r \operacaoLED[1]~output_o\ $end
$var wire 1 s \operacaoLED[2]~output_o\ $end
$var wire 1 t \saidaA[0]~output_o\ $end
$var wire 1 u \saidaA[1]~output_o\ $end
$var wire 1 v \saidaA[2]~output_o\ $end
$var wire 1 w \saidaA[3]~output_o\ $end
$var wire 1 x \saidaB[0]~output_o\ $end
$var wire 1 y \saidaB[1]~output_o\ $end
$var wire 1 z \saidaB[2]~output_o\ $end
$var wire 1 { \saidaB[3]~output_o\ $end
$var wire 1 | \clk~input_o\ $end
$var wire 1 } \entradaB[0]~input_o\ $end
$var wire 1 ~ \reset~input_o\ $end
$var wire 1 !! \botaoSEL~input_o\ $end
$var wire 1 "! \estado~1_combout\ $end
$var wire 1 #! \init~0_combout\ $end
$var wire 1 $! \init~q\ $end
$var wire 1 %! \estado~3_combout\ $end
$var wire 1 &! \A[0]~0_combout\ $end
$var wire 1 '! \estado~_emulated_q\ $end
$var wire 1 (! \estado~2_combout\ $end
$var wire 1 )! \estado~5_combout\ $end
$var wire 1 *! \B[0]~1_combout\ $end
$var wire 1 +! \A[0]~25_combout\ $end
$var wire 1 ,! \B[0]~_emulated_q\ $end
$var wire 1 -! \B[0]~3_combout\ $end
$var wire 1 .! \B[0]~2_combout\ $end
$var wire 1 /! \operacao~3_combout\ $end
$var wire 1 0! \operacao[2]~1_combout\ $end
$var wire 1 1! \operacao~0_combout\ $end
$var wire 1 2! \entradaA[0]~input_o\ $end
$var wire 1 3! \A[0]~1_combout\ $end
$var wire 1 4! \A[0]~_emulated_q\ $end
$var wire 1 5! \A[0]~3_combout\ $end
$var wire 1 6! \A[0]~2_combout\ $end
$var wire 1 7! \operacao~2_combout\ $end
$var wire 1 8! \alu|Mux7~0_combout\ $end
$var wire 1 9! \alu|Mux7~1_combout\ $end
$var wire 1 :! \alu|Mux7~2_combout\ $end
$var wire 1 ;! \entradaA[1]~input_o\ $end
$var wire 1 <! \A[1]~6_combout\ $end
$var wire 1 =! \A[1]~_emulated_q\ $end
$var wire 1 >! \A[1]~8_combout\ $end
$var wire 1 ?! \A[1]~7_combout\ $end
$var wire 1 @! \entradaB[1]~input_o\ $end
$var wire 1 A! \B[1]~6_combout\ $end
$var wire 1 B! \B[1]~_emulated_q\ $end
$var wire 1 C! \B[1]~8_combout\ $end
$var wire 1 D! \B[1]~7_combout\ $end
$var wire 1 E! \alu|mult|fa11|S~0_combout\ $end
$var wire 1 F! \alu|sub|fa2|S~0_combout\ $end
$var wire 1 G! \alu|Mux6~0_combout\ $end
$var wire 1 H! \alu|cop2|fa2|S~combout\ $end
$var wire 1 I! \alu|Mux6~1_combout\ $end
$var wire 1 J! \alu|Mux6~2_combout\ $end
$var wire 1 K! \alu|Mux6~3_combout\ $end
$var wire 1 L! \entradaB[2]~input_o\ $end
$var wire 1 M! \B[2]~11_combout\ $end
$var wire 1 N! \B[2]~_emulated_q\ $end
$var wire 1 O! \B[2]~13_combout\ $end
$var wire 1 P! \B[2]~12_combout\ $end
$var wire 1 Q! \entradaA[2]~input_o\ $end
$var wire 1 R! \A[2]~11_combout\ $end
$var wire 1 S! \A[2]~_emulated_q\ $end
$var wire 1 T! \A[2]~13_combout\ $end
$var wire 1 U! \A[2]~12_combout\ $end
$var wire 1 V! \alu|mult|fa12|S~4_combout\ $end
$var wire 1 W! \alu|mult|fa12|S~5_combout\ $end
$var wire 1 X! \alu|mult|fa21|S~2_combout\ $end
$var wire 1 Y! \alu|Mux5~0_combout\ $end
$var wire 1 Z! \alu|sub|fa2|Cout~0_combout\ $end
$var wire 1 [! \alu|sub|cp1|fa2|Cout~0_combout\ $end
$var wire 1 \! \alu|sum|fa2|Cout~0_combout\ $end
$var wire 1 ]! \alu|Mux5~1_combout\ $end
$var wire 1 ^! \alu|Mux5~2_combout\ $end
$var wire 1 _! \alu|Mux5~3_combout\ $end
$var wire 1 `! \alu|Mux5~4_combout\ $end
$var wire 1 a! \alu|Mux5~5_combout\ $end
$var wire 1 b! \entradaB[3]~input_o\ $end
$var wire 1 c! \B[3]~16_combout\ $end
$var wire 1 d! \B[3]~_emulated_q\ $end
$var wire 1 e! \B[3]~18_combout\ $end
$var wire 1 f! \B[3]~17_combout\ $end
$var wire 1 g! \alu|mult|comb~0_combout\ $end
$var wire 1 h! \alu|mult|fa12|Cout~3_combout\ $end
$var wire 1 i! \alu|mult|fa12|Cout~9_combout\ $end
$var wire 1 j! \entradaA[3]~input_o\ $end
$var wire 1 k! \A[3]~16_combout\ $end
$var wire 1 l! \A[3]~_emulated_q\ $end
$var wire 1 m! \A[3]~18_combout\ $end
$var wire 1 n! \A[3]~17_combout\ $end
$var wire 1 o! \alu|mult|comb~2_combout\ $end
$var wire 1 p! \alu|mult|fa13|S~combout\ $end
$var wire 1 q! \alu|mult|comb~3_combout\ $end
$var wire 1 r! \alu|mult|fa22|S~combout\ $end
$var wire 1 s! \alu|mult|fa31|S~2_combout\ $end
$var wire 1 t! \alu|sub|cp1|fa3|Cout~0_combout\ $end
$var wire 1 u! \alu|sub|fa3|Cout~0_combout\ $end
$var wire 1 v! \alu|sub|fa4|S~combout\ $end
$var wire 1 w! \alu|sum|fa3|Cout~0_combout\ $end
$var wire 1 x! \alu|sum|fa4|S~combout\ $end
$var wire 1 y! \alu|Mux4~0_combout\ $end
$var wire 1 z! \alu|cop2|fa4|S~combout\ $end
$var wire 1 {! \alu|Mux4~1_combout\ $end
$var wire 1 |! \alu|Mux4~2_combout\ $end
$var wire 1 }! \alu|Mux4~3_combout\ $end
$var wire 1 ~! \alu|mult|comb~1_combout\ $end
$var wire 1 !" \alu|mult|comb~4_combout\ $end
$var wire 1 "" \alu|mult|comb~5_combout\ $end
$var wire 1 #" \alu|mult|comb~6_combout\ $end
$var wire 1 $" \alu|mult|fa22|Cout~0_combout\ $end
$var wire 1 %" \alu|mult|fa13|Cout~0_combout\ $end
$var wire 1 &" \alu|mult|fa23|S~combout\ $end
$var wire 1 '" \alu|mult|fa32|S~combout\ $end
$var wire 1 (" \alu|sub|fa4|Cout~0_combout\ $end
$var wire 1 )" \alu|Mux3~0_combout\ $end
$var wire 1 *" \alu|Mux3~1_combout\ $end
$var wire 1 +" \alu|Mux3~2_combout\ $end
$var wire 1 ," \alu|Mux2~0_combout\ $end
$var wire 1 -" \alu|mult|fa24|S~2_combout\ $end
$var wire 1 ." \alu|mult|comb~7_combout\ $end
$var wire 1 /" \alu|mult|fa32|Cout~0_combout\ $end
$var wire 1 0" \alu|mult|fa23|Cout~0_combout\ $end
$var wire 1 1" \alu|mult|fa33|S~combout\ $end
$var wire 1 2" \alu|Mux2~1_combout\ $end
$var wire 1 3" \alu|mult|fa33|Cout~0_combout\ $end
$var wire 1 4" \alu|mult|comb~8_combout\ $end
$var wire 1 5" \alu|mult|fa24|Cout~0_combout\ $end
$var wire 1 6" \alu|mult|fa34|S~0_combout\ $end
$var wire 1 7" \alu|Mux1~0_combout\ $end
$var wire 1 8" \alu|mult|fa34|Cout~0_combout\ $end
$var wire 1 9" \alu|Mux0~0_combout\ $end
$var wire 1 :" \saidaA[3]~21_combout\ $end
$var wire 1 ;" \saidaA[0]~1_combout\ $end
$var wire 1 <" \saidaA[0]~0_combout\ $end
$var wire 1 =" \saidaA[0]~reg0_emulated_q\ $end
$var wire 1 >" \saidaA[0]~3_combout\ $end
$var wire 1 ?" \saidaA[0]~2_combout\ $end
$var wire 1 @" \saidaA[1]~6_combout\ $end
$var wire 1 A" \saidaA[1]~reg0_emulated_q\ $end
$var wire 1 B" \saidaA[1]~8_combout\ $end
$var wire 1 C" \saidaA[1]~7_combout\ $end
$var wire 1 D" \saidaA[2]~11_combout\ $end
$var wire 1 E" \saidaA[2]~reg0_emulated_q\ $end
$var wire 1 F" \saidaA[2]~13_combout\ $end
$var wire 1 G" \saidaA[2]~12_combout\ $end
$var wire 1 H" \saidaA[3]~16_combout\ $end
$var wire 1 I" \saidaA[3]~reg0_emulated_q\ $end
$var wire 1 J" \saidaA[3]~18_combout\ $end
$var wire 1 K" \saidaA[3]~17_combout\ $end
$var wire 1 L" \saidaB[0]~1_combout\ $end
$var wire 1 M" \saidaB[0]~reg0_emulated_q\ $end
$var wire 1 N" \saidaB[0]~3_combout\ $end
$var wire 1 O" \saidaB[0]~2_combout\ $end
$var wire 1 P" \saidaB[1]~6_combout\ $end
$var wire 1 Q" \saidaB[1]~reg0_emulated_q\ $end
$var wire 1 R" \saidaB[1]~8_combout\ $end
$var wire 1 S" \saidaB[1]~7_combout\ $end
$var wire 1 T" \saidaB[2]~11_combout\ $end
$var wire 1 U" \saidaB[2]~reg0_emulated_q\ $end
$var wire 1 V" \saidaB[2]~13_combout\ $end
$var wire 1 W" \saidaB[2]~12_combout\ $end
$var wire 1 X" \saidaB[3]~16_combout\ $end
$var wire 1 Y" \saidaB[3]~reg0_emulated_q\ $end
$var wire 1 Z" \saidaB[3]~18_combout\ $end
$var wire 1 [" \saidaB[3]~17_combout\ $end
$var wire 1 \" operacao [2] $end
$var wire 1 ]" operacao [1] $end
$var wire 1 ^" operacao [0] $end
$var wire 1 _" \ALT_INV_A[0]~0_combout\ $end
$var wire 1 `" \ALT_INV_saidaA[0]~0_combout\ $end
$var wire 1 a" \ALT_INV_operacao[2]~1_combout\ $end
$upscope $end
$upscope $end
$enddefinitions $end
#0
$dumpvars
0!
0"
0#
0/
0@
1A
xB
1C
1D
1E
1F
1G
1H
0I
0J
0K
0\
0h
0i
0j
0k
0l
0m
0n
0o
0p
0q
0r
0s
0t
0u
0v
0w
0x
0y
0z
0{
0|
1}
0~
0!!
0"!
0#!
0$!
0%!
1&!
0'!
0(!
0)!
0*!
0+!
0,!
0-!
0.!
0/!
10!
01!
12!
03!
04!
05!
06!
07!
08!
09!
0:!
1;!
0<!
0=!
0>!
0?!
0@!
0A!
0B!
0C!
0D!
0E!
0F!
0G!
0H!
0I!
0J!
0K!
1L!
0M!
0N!
0O!
0P!
0Q!
0R!
0S!
0T!
0U!
0V!
0W!
0X!
0Y!
0Z!
0[!
0\!
0]!
0^!
0_!
0`!
0a!
0b!
0c!
0d!
0e!
0f!
0g!
0h!
0i!
0j!
0k!
0l!
0m!
0n!
0o!
0p!
0q!
0r!
0s!
0t!
0u!
0v!
0w!
0x!
0y!
0z!
0{!
0|!
0}!
0~!
0!"
0""
0#"
0$"
0%"
0&"
0'"
0("
0)"
0*"
0+"
0,"
0-"
0."
0/"
00"
01"
02"
03"
04"
05"
06"
07"
08"
09"
0:"
0;"
1<"
0="
0>"
0?"
0@"
0A"
0B"
0C"
0D"
0E"
0F"
0G"
0H"
0I"
0J"
0K"
0L"
0M"
0N"
0O"
0P"
0Q"
0R"
0S"
0T"
0U"
0V"
0W"
0X"
0Y"
0Z"
0["
0_"
0`"
0a"
0$
0%
1&
1'
0(
1)
0*
1+
0L
0M
1N
1O
0P
1Q
0R
1S
0T
0U
0V
0W
0X
0Y
0Z
0[
0]
0^
0_
0`
0a
0b
0c
0d
0e
0f
0g
0\"
0]"
0^"
0,
0-
0.
00
01
02
03
04
05
06
07
08
09
0:
0;
0<
0=
0>
0?
$end
#5000
1#
1I
1|
#10000
0#
0I
0|
#15000
1#
1I
1|
#20000
0#
0I
0|
#25000
1#
1I
1|
#30000
0#
0I
0|
#35000
1#
1I
1|
#40000
0#
0I
0|
#45000
1#
1I
1|
#50000
0#
0I
0|
#55000
1#
1I
1|
#60000
0#
0I
0|
#65000
1#
1I
1|
#70000
0#
0I
0|
#75000
1#
1I
1|
#80000
0#
0I
0|
#85000
1#
1I
1|
#90000
0#
0I
0|
#95000
1#
1I
1|
#100000
0#
0I
0|
#105000
1#
1I
1|
#110000
0#
0I
0|
#115000
1#
1I
1|
#120000
0#
0I
0|
#125000
1#
1I
1|
#130000
0#
0I
0|
#135000
1#
1I
1|
#140000
0#
0I
0|
#145000
1#
1I
1|
#150000
0#
1!
0I
1K
1!!
0|
#155000
1#
1I
1|
#160000
0#
0I
0|
#165000
1#
1I
1|
#170000
0#
0I
0|
#175000
1#
1/
1I
1J
1~
1|
0&!
00!
1:"
0<"
1`"
1a"
1_"
1;"
1<"
1?"
1@"
1C"
1L"
1O"
1T"
1W"
0`"
1V"
1N"
1B"
1>"
1z
1x
1u
1t
1e
1g
1b
1c
1?
1=
1;
1:
#180000
0#
0I
0|
#185000
1#
1I
1|
#190000
0#
0I
0|
#195000
1#
1I
1|
#200000
0#
0I
0|
#205000
1#
1I
1|
#210000
0#
0I
0|
#215000
1#
1I
1|
#220000
0#
0I
0|
#225000
1#
1I
1|
#230000
0#
0I
0|
#235000
1#
1I
1|
#240000
0#
0I
0|
#245000
1#
1I
1|
#250000
0#
0I
0|
#255000
1#
1I
1|
#260000
0#
0I
0|
#265000
1#
1I
1|
#270000
0#
0I
0|
#275000
1#
1I
1|
#280000
0#
0I
0|
#285000
1#
1I
1|
#290000
0#
0I
0|
#295000
1#
1I
1|
#300000
0#
0!
0I
0K
0!!
0|
1)!
10!
0a"
1"!
1&!
1(!
1*!
1.!
13!
16!
1<!
1?!
1M!
1P!
0_"
1^!
1O!
1q!
1>!
19!
1X!
1g!
1h!
1z!
15!
1E!
1Z!
1[!
1\!
1t!
1-!
1#!
0)!
1+!
00!
0:"
1%!
1a"
0<"
0&!
1v!
1w!
1]!
1:!
1r!
1_!
1_"
1`"
1s!
0^!
1x!
1y!
0_!
1h
1{!
1[
17
#305000
1#
1I
1|
1$!
1'!
1,!
14!
1=!
1N!
1="
1A"
1M"
1U"
0V"
0N"
0B"
0>"
0O!
0>!
05!
0-!
0(!
0%!
0+!
1/!
1%!
1)!
10!
1:"
0.!
06!
0?!
0P!
0?"
0C"
0O"
0W"
0a"
1^!
1u!
0w!
0q!
09!
0X!
0g!
0h!
0z!
0:!
0E!
0Z!
0[!
0\!
0t!
1<"
1?"
1C"
1O"
1W"
1&!
1(!
1.!
16!
1?!
1P!
0_"
0`"
0^!
1q!
19!
1X!
1g!
1h!
1z!
1E!
1Z!
1[!
1\!
1t!
0%!
0)!
00!
0:"
0]!
0u!
0r!
0x!
1_!
0z
0x
0u
0t
0="
0A"
0M"
0U"
0'!
0,!
04!
0=!
0N!
1a"
0y!
0s!
1^!
0<"
0?"
0C"
0O"
0W"
0&!
0(!
0.!
06!
0?!
0P!
1w!
1]!
1:!
1r!
0_!
0e
0g
0b
0c
1z
1x
1u
1t
0h
1O!
1>!
15!
1-!
1(!
1V"
1N"
1B"
1>"
1_"
1`"
0?
0=
0;
0:
1x!
1u!
0w!
0q!
09!
0X!
0g!
0h!
1s!
0z!
0:!
0E!
0Z!
0[!
0\!
0t!
1%!
1)!
10!
1:"
1_!
0{!
1e
1g
1b
1c
0[
1?"
1C"
1O"
1W"
0%!
0)!
00!
0:"
1.!
16!
1?!
1P!
0a"
1?
1=
1;
1:
07
1<"
1&!
0]!
0u!
0r!
0x!
1y!
1a"
1h
0z
0x
0u
0t
0^!
1q!
19!
1X!
1g!
1h!
1z!
1E!
1Z!
1[!
1\!
1t!
0<"
0&!
0_"
0`"
1{!
0y!
0s!
0v!
1^!
1_"
1`"
1[
0e
0g
0b
0c
0h
1v!
1w!
1]!
1:!
1r!
0_!
17
0?
0=
0;
0:
1z
1x
1u
1t
1_!
0{!
0[
1s!
0^!
1x!
1e
1g
1b
1c
07
1?
1=
1;
1:
1y!
0_!
1h
1{!
1[
17
#310000
0#
0I
0|
#315000
1#
1I
1|
1^"
0/!
11!
18!
09!
1G!
1J!
0]!
1`!
1a!
1^!
1K!
1I!
1q
1_!
1_
1.
1i
1j
1Z
1Y
16
15
#320000
0#
0I
0|
#325000
1#
1I
1|
0^"
1]"
0I!
1Y!
0_!
1/!
08!
0G!
0J!
1]!
0^!
0y!
1|!
1}!
1I!
0:!
1_!
0K!
1r
0q
1^
0_
0.
1-
0i
0h
1k
0Z
0[
1X
07
06
14
#330000
0#
0I
0|
#335000
1#
1I
1|
1^"
0/!
01!
17!
18!
19!
1G!
1J!
0]!
1^!
1y!
0|!
1*"
0}!
1K!
0I!
1q
1_
1.
1i
0k
1Z
0X
16
04
#340000
0#
0I
0|
#345000
1#
1I
1|
0^"
0]"
1\"
0K!
1}!
1I!
0Y!
0_!
1+"
1/!
0G!
0J!
1]!
0`!
0*"
0+"
0^!
0I!
0a!
1_!
1K!
1s
0r
0q
1a!
0K!
0_!
1]
0^
0_
1l
1k
0i
0.
0-
1,
0a!
1W
1X
0Z
1i
0j
0l
06
14
13
1Z
0Y
0W
0i
1j
16
05
03
0Z
1Y
0j
06
15
0Y
05
#350000
0#
0/
0I
0J
0~
0|
0"!
1&!
0(!
0*!
0.!
10!
03!
06!
0<!
0?!
0M!
0P!
0;"
1<"
0?"
0@"
0C"
0L"
0O"
0T"
0W"
0`"
0a"
0_"
0V"
0N"
0B"
0>"
1^!
1u!
0w!
0O!
0q!
0>!
08!
0X!
0g!
0h!
0z!
05!
1:!
0E!
0Z!
0[!
0\!
0t!
0-!
0\"
0]!
0u!
0:!
0r!
0x!
1_!
0z
0x
0u
0t
07!
09!
0}!
0y!
0s!
0v!
0^!
0e
0g
0b
0c
1h
0?
0=
0;
0:
0s
0_!
0{!
1[
0h
0]
17
0k
0[
0,
0X
07
04
#355000
1#
1I
1|
#360000
0#
0I
0|
#365000
1#
1I
1|
#370000
0#
0I
0|
#375000
1#
1I
1|
#380000
0#
0I
0|
#385000
1#
1I
1|
#390000
0#
0I
0|
#395000
1#
1I
1|
#400000
0#
0I
0|
#405000
1#
1I
1|
#410000
0#
0I
0|
#415000
1#
1I
1|
#420000
0#
0I
0|
#425000
1#
1I
1|
#430000
0#
0I
0|
#435000
1#
1I
1|
#440000
0#
0I
0|
#445000
1#
1I
1|
#450000
0#
1!
0I
1K
1!!
0|
#455000
1#
1I
1|
#460000
0#
0I
0|
#465000
1#
1I
1|
#470000
0#
0I
0|
#475000
1#
1I
1|
#480000
0#
0I
0|
#485000
1#
1I
1|
#490000
0#
0I
0|
#495000
1#
1I
1|
#500000
0#
1%
0'
0I
0O
1M
1Q!
02!
0|
#505000
1#
1I
1|
#510000
0#
0I
0|
#515000
1#
1I
1|
#520000
0#
0I
0|
#525000
1#
1/
1I
1J
1~
1|
0&!
00!
1:"
0<"
1`"
1a"
1_"
1<"
1@"
1C"
1D"
1G"
1L"
1O"
1T"
1W"
0`"
1V"
1N"
1F"
1B"
1z
1x
1v
1u
1e
1g
1a
1b
1?
1=
1:
19
#530000
0#
0I
0|
#535000
1#
1I
1|
#540000
0#
0I
0|
#545000
1#
1I
1|
#550000
0#
0I
0|
#555000
1#
1I
1|
#560000
0#
0I
0|
#565000
1#
1I
1|
#570000
0#
0I
0|
#575000
1#
1I
1|
#580000
0#
0I
0|
#585000
1#
1I
1|
#590000
0#
0I
0|
#595000
1#
1I
1|
#600000
0#
0!
0I
0K
0!!
0|
1)!
10!
0a"
1"!
1&!
1(!
1*!
1.!
1<!
1?!
1M!
1P!
1R!
1U!
0_"
1h!
1T!
1^!
1`!
1u!
1w!
1""
1O!
1H!
1V!
1Y!
1q!
1z!
1>!
1E!
1F!
1Z!
1[!
1t!
1-!
0)!
00!
0:"
1a"
0<"
0&!
1G!
1r!
1W!
1&"
1x!
1("
1a!
1_"
1`"
1y!
1X!
1s!
1'"
1I!
1{!
1j
1p
1Y
1\
15
1"
#605000
1#
1I
1|
1^"
0/!
11!
19!
0G!
1J!
0y!
1*"
0{!
1K!
0I!
1:!
1q
1_
1.
1h
1i
1[
1Z
17
16
#610000
0#
0I
0|
#615000
1#
1I
1|
0^"
1]"
1I!
0Y!
1_!
1{!
1/!
18!
09!
0J!
0^!
0`!
1|!
0*"
1}!
0a!
0K!
1r
0q
1^
0_
0.
1-
0i
0j
1k
0Z
0Y
1X
06
05
14
#620000
0#
0I
0|
#625000
1#
1I
1|
1^"
0/!
01!
17!
08!
19!
1G!
1J!
1^!
1y!
0|!
1*"
0}!
0_!
1K!
1q
1_
1.
1i
0k
1Z
0X
16
04
#630000
0#
0I
0|
#635000
1#
1I
1|
0^"
0]"
1\"
1}!
1Y!
1_!
1+"
1/!
0J!
1`!
0*"
0+"
1a!
0_!
1s
0r
0q
0a!
1]
0^
0_
1l
1k
0.
0-
1,
1W
1X
1j
0l
14
13
1Y
0W
0j
15
03
0Y
05
#640000
0#
0I
0|
#645000
1#
1I
1|
1^"
0/!
11!
0G!
1J!
0y!
1*"
1,"
12"
17"
19"
1+"
0{!
0I!
1q
0K!
0}!
1_
1.
1l
1o
1n
1m
1W
1T
1U
1V
0k
0i
13
12
11
10
0X
0Z
06
04
#650000
0#
0I
0|
#655000
1#
1I
1|
0^"
1]"
1I!
0Y!
1_!
1{!
0+"
1/!
09!
0J!
0^!
0`!
1|!
0*"
02"
07"
09"
1+"
0:!
1}!
1a!
1K!
1r
0q
1^
0_
0o
0n
0m
0l
0.
1-
0T
0U
0V
0W
1i
1j
1k
0h
1l
03
02
01
00
1Z
1Y
1X
0[
1W
07
16
15
14
13
#660000
0#
0I
0|
#665000
1#
1I
1|
1^"
0/!
01!
07!
1G!
1J!
1^!
1y!
0|!
1*"
0,"
12"
17"
19"
02"
07"
09"
0+"
0_!
1q
0a!
1_
1o
1n
1m
1.
1T
1U
1V
0l
0o
0n
0m
12
11
10
0W
0T
0U
0V
0j
03
02
01
00
0Y
05
#670000
0#
0I
0|
#675000
1#
1I
1|
0^"
0]"
0\"
0}!
1Y!
1_!
1/!
0J!
1`!
0*"
0K!
1a!
0_!
0s
0r
0q
0]
0^
0_
0k
0.
0-
0,
0X
1j
0i
04
1Y
0Z
06
15
#680000
0#
0I
0|
#685000
1#
1I
1|
1^"
0/!
11!
19!
0G!
1J!
0y!
1*"
0{!
1K!
0I!
1:!
1q
1_
1.
1h
1i
1[
1Z
17
16
#690000
0#
0I
0|
#695000
1#
1I
1|
0^"
1]"
1I!
0Y!
1_!
1{!
1/!
18!
09!
0J!
0^!
0`!
1|!
0*"
1}!
0a!
0K!
1r
0q
1^
0_
0.
1-
0i
0j
1k
0Z
0Y
1X
06
05
14
#700000
0#
0/
0I
0J
0~
0|
0"!
1&!
0(!
0*!
0.!
10!
0<!
0?!
0M!
0P!
0R!
0U!
1<"
0@"
0C"
0D"
0G"
0L"
0O"
0T"
0W"
0`"
0a"
0_"
0V"
0N"
0F"
0B"
0h!
0T!
1`!
0w!
0""
0O!
0H!
1J!
0V!
0q!
0z!
0>!
0E!
0F!
0W!
0Z!
0[!
0t!
0-!
0]"
1v!
0("
0u!
0X!
0r!
1K!
0I!
0&"
0x!
1a!
0z
0x
0v
0u
01!
08!
0J!
0_!
0`!
1y!
0{!
0|!
0s!
0'"
0v!
0y!
0e
0g
0a
0b
0}!
1{!
0a!
0K!
0:!
0?
0=
0:
09
0r
0{!
1j
1i
0p
0^
1Y
1Z
0\
0-
16
15
0"
0h
0i
0j
0k
0[
0Z
0Y
0X
07
06
05
04
#705000
1#
1I
1|
#710000
0#
0I
0|
#715000
1#
1I
1|
#720000
0#
0I
0|
#725000
1#
1I
1|
#730000
0#
0I
0|
#735000
1#
1I
1|
#740000
0#
0I
0|
#745000
1#
1I
1|
#750000
0#
1!
0I
1K
1!!
0|
#755000
1#
1I
1|
#760000
0#
0I
0|
#765000
1#
1I
1|
#770000
0#
0I
0|
#775000
1#
1I
1|
#780000
0#
0I
0|
#785000
1#
1I
1|
#790000
0#
0I
0|
#795000
1#
1I
1|
#800000
0#
0I
0|
#805000
1#
1I
1|
#810000
0#
0I
0|
#815000
1#
1I
1|
#820000
0#
0I
0|
#825000
1#
1I
1|
#830000
0#
0I
0|
#835000
1#
1I
1|
#840000
0#
0I
0|
#845000
1#
1I
1|
#850000
0#
0I
0|
#855000
1#
1I
1|
#860000
0#
0I
0|
#865000
1#
1I
1|
#870000
0#
0I
0|
#875000
1#
1/
1I
1J
1~
1|
0&!
00!
1:"
0<"
1`"
1a"
1_"
1<"
1@"
1C"
1D"
1G"
1L"
1O"
1T"
1W"
0`"
1V"
1N"
1F"
1B"
1z
1x
1v
1u
1e
1g
1a
1b
1?
1=
1:
19
#880000
0#
0I
0|
#885000
1#
1I
1|
#890000
0#
0I
0|
#895000
1#
1I
1|
#900000
0#
0!
0I
0K
0!!
0|
1)!
10!
0a"
1"!
1&!
1(!
1*!
1.!
1<!
1?!
1M!
1P!
1R!
1U!
0_"
1h!
1T!
1^!
1`!
1u!
1w!
1""
1O!
1H!
1V!
1Y!
1q!
1z!
1>!
1E!
1F!
1Z!
1[!
1t!
1-!
0)!
00!
0:"
1a"
0<"
0&!
1G!
1r!
1W!
1&"
1x!
1("
1a!
1_"
1`"
1y!
1X!
1s!
1'"
1I!
1{!
1j
1p
1Y
1\
15
1"
#905000
1#
1I
1|
1^"
0/!
11!
19!
0G!
1J!
0y!
1*"
0{!
1K!
0I!
1:!
1q
1_
1.
1h
1i
1[
1Z
17
16
#910000
0#
0I
0|
#915000
1#
1I
1|
0^"
1]"
1I!
0Y!
1_!
1{!
1/!
18!
09!
0J!
0^!
0`!
1|!
0*"
1}!
0a!
0K!
1r
0q
1^
0_
0.
1-
0i
0j
1k
0Z
0Y
1X
06
05
14
#920000
0#
0I
0|
#925000
1#
1I
1|
1^"
0/!
01!
17!
08!
19!
1G!
1J!
1^!
1y!
0|!
1*"
0}!
0_!
1K!
1q
1_
1.
1i
0k
1Z
0X
16
04
#930000
0#
0I
0|
#935000
1#
1I
1|
0^"
0]"
1\"
1}!
1Y!
1_!
1+"
1/!
0J!
1`!
0*"
0+"
1a!
0_!
1s
0r
0q
0a!
1]
0^
0_
1l
1k
0.
0-
1,
1W
1X
1j
0l
14
13
1Y
0W
0j
15
03
0Y
05
#940000
0#
0I
0|
#945000
1#
1I
1|
1^"
0/!
11!
0G!
1J!
0y!
1*"
1,"
12"
17"
19"
1+"
0{!
0I!
1q
0K!
0}!
1_
1.
1l
1o
1n
1m
1W
1T
1U
1V
0k
0i
13
12
11
10
0X
0Z
06
04
